#240 - Marches |

owner = A13
controller = A13
add_core = A13
add_core = A50
culture = old_alenic
religion = regent_court

hre = no

base_tax = 2
base_production = 2
base_manpower = 2

trade_goods = fur

capital = ""

is_city = yes
fort_15th = yes






