# No previous file for Prey Nokor
owner = F28
controller = F28
add_core = F28
culture = east_sandfang_gnoll
religion = xhazobkult

hre = no

base_tax = 2
base_production = 1
base_manpower = 1

trade_goods = grain

capital = ""

is_city = yes








