# No previous file for Ordal
owner = Z28
controller = Z28
add_core = Z28
add_core = Z31
culture = blue_reachman
religion = regent_court

hre = no

base_tax = 3
base_production = 3
base_manpower = 3

trade_goods = fish

capital = ""

is_city = yes






