new_world_natives_missions = {
	slot = 5
	generic = yes
	ai = yes
	potential = {
		capital_scope = {
			OR = {
				continent = north_america
				continent = south_america
				continent = new_world
			}
		}
		OR = {
			technology_group = north_american
			technology_group = south_american
			technology_group = mesoamerican
		}
	}
	new_world_modernization = {
		icon = mission_have_manufactories
		required_missions = { }
		trigger = {
			is_tribal = no
			NOT = {
				government = native
			}
			custom_trigger_tooltip = {
				tooltip = nw_modern.tooltip
				any_neighbor_country = {
					has_institution = feudalism
					NOT = {
						tech_difference = 1
					}
				}
			}
		}
		effect = {
			add_innovativeness_big_effect = yes
			add_prestige = 20
		}
	}
	new_world_remove_euro = {
		icon = mission_iroquois_warriors
		required_missions = { new_world_modernization }
		trigger = {
			total_development = 100
			custom_trigger_tooltip = {
				tooltip = new_world_remove_euro_toolip
				capital_scope = {
					region_for_scope_province = {
						type = all
						NOT = {
							owner = {
								technology_group = western
							}
						}
					}
				}
			}
		}
		effect = {
			add_mil_power = 200
			add_country_modifier = {
				name = "military_victory"
				duration = 7300
			}
		}
	}
	nw_sunset_invasion = {
		icon = mission_conquer_5_states
		required_missions = { new_world_remove_euro }
		trigger = {
			num_of_provinces_owned_or_owned_by_non_sovereign_subjects_with = {
				value = 5
				continent = europe
			}
		}
		effect = {
			add_adm_power = 100
			add_dip_power = 100
			add_mil_power = 100
		}
	}
}