
country_decisions = {
	rebuild_Bal_Vroren = {
		major = yes
	
		potential = {
			owns_core_province = 740
			740 = {
				has_province_modifier = ruined_castanorian_citadel
				NOT = { has_province_modifier = rebuilding_castanorian_citadel }
			}
		}
		
		allow = {
			treasury = 150
		}
	
		effect = {
			add_treasury = -150
			country_event = {
				id = castanorian_citadel.1
			}
		}
	}
	
	rebuild_Bal_Ouord = {
		major = yes
	
		potential = {
			owns_core_province = 510
			510 = {
				has_province_modifier = ruined_castanorian_citadel
				NOT = { has_province_modifier = rebuilding_castanorian_citadel }
			}
		}
		
		allow = {
			treasury = 150
		}
	
		effect = {
			add_treasury = -150
			country_event = {
				id = castanorian_citadel.3
			}
		}
	}
	
	rebuild_Bal_Mire = {
		major = yes
	
		potential = {
			owns_core_province = 229
			229 = {
				has_province_modifier = ruined_castanorian_citadel
				NOT = { has_province_modifier = rebuilding_castanorian_citadel }
			}
		}
		
		allow = {
			treasury = 150
		}
	
		effect = {
			add_treasury = -150
			country_event = {
				id = castanorian_citadel.5
			}
		}
	}
	rebuild_North_Citadel = {
		major = yes
	
		potential = {
			owns_core_province = 840
			840 = {
				has_province_modifier = ruined_castanorian_citadel
				NOT = { has_province_modifier = rebuilding_castanorian_citadel }
			}
		}
		
		allow = {
			treasury = 150
		}
	
		effect = {
			add_treasury = -150
			country_event = {
				id = castanorian_citadel.7
			}
		}
	}
	
	rebuild_Bal_Dostan = {
		major = yes
	
		potential = {
			owns_core_province = 441
			441 = {
				has_province_modifier = ruined_castanorian_citadel
				NOT = { has_province_modifier = rebuilding_castanorian_citadel }
			}
		}
		
		allow = {
			treasury = 150
		}
	
		effect = {
			add_treasury = -150
			country_event = {
				id = castanorian_citadel.9
			}
		}
	}
}