
namespace = xia_summit

#The Righteous Summit
country_event = {
	id = xia_summit.1
	title = xia_summit.1.t
	desc = xia_summit.1.d
	picture = BUDDHISM_GOOD_eventPicture
	
	trigger = {
		OR = {
			has_reform = wulin
			has_reform = one_xia
		}
		is_year = 1450
		NOT = {
			has_country_flag = xia_summit
			has_country_modifier = xia_summit_cooldown
			has_country_modifier = xia_summit_forgone
			has_country_modifier = xia_summit_ended
			has_reform = xia_parliament_reform
		}
	}
	
	mean_time_to_happen = { 
		days = 30
	}
	
	option = {
		name = "xia_summit.1.a"	#hold summit
		ai_chance = { factor = 95 }
		set_country_flag = xia_summit
		custom_tooltip = wulin_summon_xiaken_tt
		trigger = {
			has_reform = wulin
		}
		
		country_event = { id = xia_summit.50 days = 60 }	#Direction
		every_subject_country = {
			limit = { has_reform = xiaken }
			country_event = { id = xia_summit.60 }
		}
	}
	
	option = {
		name = "xia_summit.1.b"	#refuse to hold summit
		ai_chance = {
			factor = 5
			modifier = {
				factor = 0
				OR = {
					ruler_has_personality = righteous_personality
					ruler_has_personality = benevolent_personality
				}
			}
			modifier = {
				factor = 10
				OR = {
					ruler_has_personality = babbling_buffoon_personality
				}
			}
			modifier = {
				factor = 40
				OR = {
					ruler_has_personality = cruel_personality
					ruler_has_personality = malevolent_personality
				}
			}
		}
		add_country_modifier = {
			name = xia_summit_forgone
			duration = 3600
		}
	}
	
	option = {					#Hold Summit - One Xia version
		name = "xia_summit.1.c"	
		ai_chance = { factor = 95 }
		set_country_flag = xia_summit
		custom_tooltip = xia_begin_righteous_conclave_tt
		trigger = {
			has_reform = one_xia
		}
		
		hidden_effect = {
			country_event = { id = xia_summit.50 days = 60 }	#Direction
		}
	}
}

#Question of the Righteous Summit
country_event = {
	id = xia_summit.2
	title = xia_summit.2.t
	desc = xia_summit.2.d
	picture = BUDDHISM_GOOD_eventPicture
	
	is_triggered_only = yes
	
	option = {							#Establish the Righteous Conclave
		name = "xia_summit.2.a"
		ai_chance = { factor = 99 }
		add_government_reform = xia_parliament_reform
	}
	
	option = {							#End the Righteous Summit
		name = "xia_summit.2.b"
		ai_chance = {
			factor = 1
			modifier = {
				factor = 0
				OR = {
					ruler_has_personality = righteous_personality
					ruler_has_personality = benevolent_personality
				}
			}
			modifier = {
				factor = 10
				OR = {
					ruler_has_personality = cruel_personality
					ruler_has_personality = malevolent_personality
					ruler_has_personality = babbling_buffoon_personality
				}
			}
		}
		add_country_modifier = {
			name = xia_summit_ended
			duration = -1
		}
	}
}

#The Righteous Conclave Begins
country_event = {
	id = xia_summit.3
	title = xia_summit.3.t
	desc = xia_summit.3.d
	picture = BUDDHISM_GOOD_eventPicture
	
	trigger = {
		tag = Y99
		has_reform = xia_parliament_reform
		NOT = {
			has_country_flag = xia_summit
			has_country_modifier = xia_summit_cooldown
			has_country_modifier = xia_summit_forgone
			has_country_modifier = xia_conclave_cooldown
			has_country_modifier = xia_conclave_forgone
			has_country_modifier = xia_summit_ended
		}
	}
	
	mean_time_to_happen = { 
		days = 30
	}
	
	option = {							#Begin the Righteous Conclave
		name = "xia_summit.3.a"
		ai_chance = { factor = 95 }
		set_country_flag = xia_summit
		custom_tooltip = xia_begin_righteous_conclave_tt
		country_event = { id = xia_summit.50 days = 60 }	#Direction
	}
	
	option = {							#Forgo the Righteous Conclave
		name = "xia_summit.3.b"
		ai_chance = {
			factor = 1
			modifier = {
				factor = 0
				OR = {
					ruler_has_personality = righteous_personality
					ruler_has_personality = benevolent_personality
				}
			}
			modifier = {
				factor = 10
				OR = {
					ruler_has_personality = cruel_personality
					ruler_has_personality = malevolent_personality
				}
			}
		}
		add_country_modifier = {
			name = xia_conclave_forgone
			duration = 3600
		}
	}
}

#Choose Direction of Focus
country_event = {
	id = xia_summit.50
	title = xia_summit.50.t
	picture = PARLIAMENT_eventPicture
	
	desc = {
		trigger = {
			has_reform = wulin
		}
		desc = xia_summit.50.da
	}
	
	desc = {
		trigger = {
			has_reform = one_xia
		}
		desc = xia_summit.50.db
	}
	
	is_triggered_only = yes
	
	option = {
		name = "xia_summit.50.a"
		custom_tooltip = xia_summit_inward_focus_tt
		hidden_effect = {
			country_event = { id = xia_summit.51 days = 7 } #Inward
		}
	}
	
	option = {
		name = "xia_summit.50.b"
		custom_tooltip = xia_summit_balanced_focus_tt
		hidden_effect = {
			country_event = { id = xia_summit.52 days = 7 } #Balanced
		}
	}
	
	option = {
		name = "xia_summit.50.c"
		custom_tooltip = xia_summit_outward_focus_tt
		hidden_effect = {
			country_event = { id = xia_summit.53 days = 7 } #Outward
		}
	}
}

#Inward Focus
country_event = {
	id = xia_summit.51
	title = xia_summit.51.t
	desc = xia_summit.51.d
	picture = BUDDHISM_MONASTERY_eventPicture
		
	is_triggered_only = yes
	
	immediate = {
		if = {
			limit = {
				OR = {
					has_reform = wulin
					NOT = {
						has_reform = xia_parliament_reform
					}
				}
			}
			hidden_effect = {
				country_event = { id = xia_summit.54 days = 60 } #End
			}
		}
		if = {
			limit = {
				has_reform = xia_parliament_reform
			}
			hidden_effect = {
				country_event = { id = xia_summit.55 days = 60 } #End
			}
		}
	}
	
	option = {										#drill gain
		name = "xia_summit.51.a"
		add_country_modifier = {				
			name = xia_summit_inward_martial
			duration = 3480
		}
		hidden_effect = {
			every_subject_country = {
				limit = { 
					has_country_modifier = xia_sent_delegation
				}
				country_event = { id = xia_summit.61 }
			}
		}
	}
	
	option = {										#diplo annex cost only for wulin
		name = "xia_summit.51.b"
		trigger = {
			has_reform = wulin
		}
		add_country_modifier = {
			name = xia_summit_inward_diplo_wulin
			duration = 3480
		}
		hidden_effect = {
			every_subject_country = {
				limit = { 
					has_country_modifier = xia_sent_delegation
				}
				country_event = { id = xia_summit.62 }
			}
		}
	}
	
	option = {										#diplo annex cost for one xia
		name = "xia_summit.51.c"
		trigger = {
			has_reform = one_xia
		}
		add_country_modifier = {
			name = xia_summit_inward_diplo_wulin
			duration = 3480
		}
	}
	
	option = {										#dev cost
		name = "xia_summit.51.d"
		add_country_modifier = {
			name = xia_summit_inward_eco
			duration = 3480
		}
		hidden_effect = {
			every_subject_country = {
				limit = { 
					has_country_modifier = xia_sent_delegation
				}
				country_event = { id = xia_summit.63 }
			}
		}
	}
}

#Balanced Focus
country_event = {
	id = xia_summit.52
	title = xia_summit.52.t
	picture = COURT_eventPicture
	
	desc = {
		trigger = {
			has_reform = wulin
		}
		desc = xia_summit.52.da
	}
	
	desc = {
		trigger = {
			has_reform = one_xia
		}
		desc = xia_summit.52.db
	}
		
	is_triggered_only = yes
	
	immediate = {
		if = {
			limit = {
				OR = {
					has_reform = wulin
					NOT = {
						has_reform = xia_parliament_reform
					}
				}
			}
			hidden_effect = {
				country_event = { id = xia_summit.54 days = 60 } #End
			}
		}
		if = {
			limit = {
				has_reform = xia_parliament_reform
			}
			hidden_effect = {
				country_event = { id = xia_summit.55 days = 60 } #End
			}
		}
	}
	
	option = {										#manpower
		name = "xia_summit.52.a"
		add_country_modifier = {
			name = xia_summit_balanced_martial
			duration = 3480
		}
		hidden_effect = {
			every_subject_country = {
				limit = { 
					has_country_modifier = xia_sent_delegation
				}
				country_event = { id = xia_summit.64 }
			}
		}
	}
	
	option = {										#dip rep
		name = "xia_summit.52.b"
		add_country_modifier = {
			name = xia_summit_balanced_diplo
			duration = 3480
		}
		hidden_effect = {
			every_subject_country = {
				limit = { 
					has_country_modifier = xia_sent_delegation
				}
				country_event = { id = xia_summit.65 }
			}
		}
	}
	
	option = {										#tax efficiency
		name = "xia_summit.52.c"
		add_country_modifier = {
			name = xia_summit_balanced_eco
			duration = 3480
		}
		hidden_effect = {
			every_subject_country = {
				limit = { 
					has_country_modifier = xia_sent_delegation
				}
				country_event = { id = xia_summit.66 }
			}
		}
	}
}

#Outward Focus
country_event = {
	id = xia_summit.53
	title = xia_summit.53.t
	desc = xia_summit.53.d
	picture = DIPLOMACY_eventPicture
		
	is_triggered_only = yes
	
	immediate = {
		if = {
			limit = {
				OR = {
					has_reform = wulin
					NOT = {
						has_reform = xia_parliament_reform
					}
				}
			}
			hidden_effect = {
				country_event = { id = xia_summit.54 days = 60 } #End
			}
		}
		if = {
			limit = {
				has_reform = xia_parliament_reform
			}
			hidden_effect = {
				country_event = { id = xia_summit.55 days = 60 } #End
			}
		}
	}
	
	option = {										#land morale
		name = "xia_summit.53.a"
		add_country_modifier = {
			name = xia_summit_outward_martial
			duration = 3480
		}
		hidden_effect = {
			every_subject_country = {
				limit = { 
					has_country_modifier = xia_sent_delegation
				}
				country_event = { id = xia_summit.67 }
			}
		}
	}
	
	option = {										#improve relations
		name = "xia_summit.53.b"
		add_country_modifier = {
			name = xia_summit_outward_diplo
			duration = 3480
		}
		hidden_effect = {
			every_subject_country = {
				limit = { 
					has_country_modifier = xia_sent_delegation
				}
				country_event = { id = xia_summit.68 }
			}
		}
	}
	
	option = {										#trade efficiency
		name = "xia_summit.53.c"
		add_country_modifier = {
			name = xia_summit_outward_eco
			duration = 3480
		}
		hidden_effect = {
			every_subject_country = {
				limit = { 
					has_country_modifier = xia_sent_delegation
				}
				country_event = { id = xia_summit.69 }
			}
		}
	}
}

#Righteous Summit Ends
country_event = {
	id = xia_summit.54
	title = xia_summit.54.t
	desc = xia_summit.54.d
	picture = BUDDHISM_GOOD_eventPicture
	
	is_triggered_only = yes
	
	option = {
		name = "xia_summit.54.a"
		clr_country_flag = xia_summit
		add_country_modifier = {
			name = xia_summit_cooldown
			duration = 3420
		}
	}
}

#Righteous Conclave Ends
country_event = {
	id = xia_summit.55
	title = xia_summit.55.t
	desc = xia_summit.55.d
	picture = BUDDHISM_GOOD_eventPicture
	
	is_triggered_only = yes
	
	option = {
		name = "xia_summit.55.a"
		clr_country_flag = xia_summit
		add_country_modifier = {
			name = xia_conclave_cooldown
			duration = 3420
		}
	}
}

#Righteous Summit Begins Xiaken Version
country_event = {
	id = xia_summit.60
	title = xia_summit.60.t
	desc = xia_summit.60.d
	picture = BUDDHISM_GOOD_eventPicture
	
	is_triggered_only = yes
	
	option = {						#send delegation
		name = "xia_summit.60.a"
		ai_chance = { factor = 95 }
		set_country_flag = xia_summit
		add_country_modifier = {
			name = xia_sent_delegation
			duration = -1
		}
	}
	
	option = {						#refuse to send delegation
		name = "xia_summit.60.b"
		ai_chance = {
			factor = 5
			modifier = {
				factor = 0
				OR = {
					ruler_has_personality = righteous_personality
					ruler_has_personality = benevolent_personality
				}
			}
			modifier = {
				factor = 10
				OR = {
					ruler_has_personality = babbling_buffoon_personality
				}
			}
			modifier = {
				factor = 40
				OR = {
					ruler_has_personality = cruel_personality
					ruler_has_personality = malevolent_personality
				}
			}
		}
		add_prestige = -20
		add_liberty_desire = 10
	}
}

#Wulin Chose Inward Martial
country_event = {
	id = xia_summit.61
	title = xia_summit.61.t
	desc = xia_summit.61.d
	picture = BUDDHISM_GOOD_eventPicture
	
	is_triggered_only = yes
	
	option = {
		name = "xia_summit.61.a"
		clr_country_flag = xia_summit
		add_country_modifier = {
			name = xia_summit_cooldown
			duration = 3420
		}
		add_country_modifier = {
			name = xia_summit_inward_martial
			duration = 3420
		}
		remove_country_modifier = xia_sent_delegation
	}
}

#Wulin Chose Inward Diplo
country_event = {
	id = xia_summit.62
	title = xia_summit.62.t
	desc = xia_summit.62.d
	picture = BUDDHISM_GOOD_eventPicture
	
	is_triggered_only = yes
	
	option = {
		name = "xia_summit.62.a"
		clr_country_flag = xia_summit
		add_country_modifier = {
			name = xia_summit_cooldown
			duration = 3420
		}
		remove_country_modifier = xia_sent_delegation
	}
}

#Wulin Chose Inward Eco
country_event = {
	id = xia_summit.63
	title = xia_summit.63.t
	desc = xia_summit.63.d
	picture = BUDDHISM_GOOD_eventPicture
	
	is_triggered_only = yes
	
	option = {
		name = "xia_summit.63.a"
		clr_country_flag = xia_summit
		add_country_modifier = {
			name = xia_summit_cooldown
			duration = 3420
		}
		add_country_modifier = {
			name = xia_summit_inward_eco
			duration = 3420
		}
		remove_country_modifier = xia_sent_delegation
	}
}

#Wulin Chose Balanced Martial
country_event = {
	id = xia_summit.64
	title = xia_summit.64.t
	desc = xia_summit.64.d
	picture = BUDDHISM_GOOD_eventPicture
	
	is_triggered_only = yes
	
	option = {
		name = "xia_summit.64.a"
		clr_country_flag = xia_summit
		add_country_modifier = {
			name = xia_summit_cooldown
			duration = 3420
		}
		add_country_modifier = {
			name = xia_summit_balanced_martial
			duration = 3420
		}
		remove_country_modifier = xia_sent_delegation
	}
}

#Wulin Chose Balanced Diplo
country_event = {
	id = xia_summit.65
	title = xia_summit.65.t
	desc = xia_summit.65.d
	picture = BUDDHISM_GOOD_eventPicture
	
	is_triggered_only = yes
	
	option = {
		name = "xia_summit.65.a"
		clr_country_flag = xia_summit
		add_country_modifier = {
			name = xia_summit_cooldown
			duration = 3420
		}
		add_country_modifier = {
			name = xia_summit_balanced_diplo
			duration = 3420
		}
		remove_country_modifier = xia_sent_delegation
	}
}

#Wulin Chose Balanced Eco
country_event = {
	id = xia_summit.66
	title = xia_summit.66.t
	desc = xia_summit.66.d
	picture = BUDDHISM_GOOD_eventPicture
	
	is_triggered_only = yes
	
	option = {
		name = "xia_summit.66.a"
		clr_country_flag = xia_summit
		add_country_modifier = {
			name = xia_summit_cooldown
			duration = 3420
		}
		add_country_modifier = {
			name = xia_summit_balanced_eco
			duration = 3420
		}
		remove_country_modifier = xia_sent_delegation
	}
}

#Wulin Chose Outward Martial
country_event = {
	id = xia_summit.67
	title = xia_summit.67.t
	desc = xia_summit.67.d
	picture = BUDDHISM_GOOD_eventPicture
	
	is_triggered_only = yes
	
	option = {
		name = "xia_summit.67.a"
		clr_country_flag = xia_summit
		add_country_modifier = {
			name = xia_summit_cooldown
			duration = 3420
		}
		add_country_modifier = {
			name = xia_summit_outward_martial
			duration = 3420
		}
		remove_country_modifier = xia_sent_delegation
	}
}

#Wulin Chose Outward Diplo
country_event = {
	id = xia_summit.68
	title = xia_summit.68.t
	desc = xia_summit.68.d
	picture = BUDDHISM_GOOD_eventPicture
	
	is_triggered_only = yes
	
	option = {
		name = "xia_summit.68.a"
		clr_country_flag = xia_summit
		add_country_modifier = {
			name = xia_summit_cooldown
			duration = 3420
		}
		add_country_modifier = {
			name = xia_summit_outward_diplo
			duration = 3420
		}
		remove_country_modifier = xia_sent_delegation
	}
}

#Wulin Chose Outward Eco
country_event = {
	id = xia_summit.69
	title = xia_summit.69.t
	desc = xia_summit.69.d
	picture = BUDDHISM_GOOD_eventPicture
	
	is_triggered_only = yes
	
	option = {
		name = "xia_summit.69.a"
		clr_country_flag = xia_summit
		add_country_modifier = {
			name = xia_summit_cooldown
			duration = 3420
		}
		add_country_modifier = {
			name = xia_summit_outward_eco
			duration = 3420
		}
		remove_country_modifier = xia_sent_delegation
	}
}

#####################################################################################
#########Events below this line happen at random while the Summit is ongoing#########
#####################################################################################

###########Duel event chain start###########
#Delegation Insulted
country_event = {
	id = xia_summit.10
	title = xia_summit.10.t
	desc = xia_summit.10.d
	picture = ACCUSATION_eventPicture
	
	immediate = {
		hidden_effect = {
			random_known_country = {
				limit = {
					has_country_modifier = xia_sent_delegation
				}
				save_event_target_as = xia_duel_target
			}
		}
	}
	
	trigger = {
		has_country_flag = xia_summit
		has_reform = xiaken
	}
	
	mean_time_to_happen = {
		months = 72
	}
	
	option = {						#let it go
		name = "xia_summit.10.a"
		add_prestige = -5 
		ai_chance = {
			factor = 50
			modifier = {
				factor = 5
				OR = {
					ruler_has_personality = calm_personality
					ruler_has_personality = benevolent_personality
					ruler_has_personality = careful_personality
					ruler_has_personality = craven_personality
				}
			}
			modifier = {
				factor = 0
				OR = {
					ruler_has_personality = malevolent_personality
					ruler_has_personality = naive_personality
					ruler_has_personality = bold_fighter_personality
				}
			}
		}
	}
	
	option = {						#request duel
		name = "xia_summit.10.b"
		add_prestige = 5
		custom_tooltip = xia_duel_choice_tt
		ai_chance = {
			factor = 50
			modifier = {
				factor = 5
				OR = {
					ruler_has_personality = righteous_personality
					ruler_has_personality = just_personality
					ruler_has_personality = inspiring_leader_personality
				}
			}
		}
		save_event_target_as = xia_duel_instigator
		event_target:xia_duel_target = {
			country_event = { id = xia_summit.11 }
		}
	}
	
	option = {						#smooth things over
		name = "xia_summit.10.c"
		trigger = {
			OR = {
				ruler_has_personality = charismatic_negotiator_personality
				ruler_has_personality = silver_tongue_personality 
			}
		}
		add_prestige = 10
	}
}

#Offending Xiaken responds to duel request
country_event = {
	id = xia_summit.11
	title = xia_summit.11.t
	desc = xia_summit.11.d
	picture = IKKO_IKKI_INCIDENT_eventPicture
	
	is_triggered_only = yes
	
	option = { 						#back down and apologize
		name = "xia_summit.11.a"
		add_prestige = -20
		ai_chance = {
			factor = 20
		}
		event_target:xia_duel_instigator = {
			country_event = { id = xia_summit.12 days = 3 }
		}
	}
	
	option = {						#accept duel
		name = "xia_summit.11.b"
		custom_tooltip = xia_duel_accept_tt
		ai_chance = {
			factor = 80
			modifier = {
				factor = 0
				ruler_has_personality = craven_personality
			}
			modifier = {
				factor = 5
				OR = {
					ruler_has_personality = bold_fighter_personality
					ruler_has_personality = just_personality
					ruler_has_personality = inspiring_leader_personality
				}
			}
		}
		overlord = {
			country_event = { id = xia_summit.13 days = 3 }
		}
	}
}

#Offending delegation apologizes
country_event = {
	id = xia_summit.12
	title = xia_summit.12.t
	desc = xia_summit.12.d
	picture = DEBATE_REPUBLICAN_eventPicture
	
	is_triggered_only = yes
	
	option = {
		name = "xia_summit.12.a"
		add_prestige = 10
	}
}

#Wulin decides whether or not to allow the duel
country_event = {
	id = xia_summit.13
	title = xia_summit.13.t
	desc = xia_summit.13.d
	picture = IKKO_IKKI_INCIDENT_eventPicture
	
	is_triggered_only = yes
	
	option = {						#allow the duel
		name = "xia_summit.13.a"
		ai_chance = {
			factor = 90
		}
		event_target:xia_duel_instigator = {
			country_event = { id = xia_summit.14 }
		}
		event_target:xia_duel_target = {
			country_event = { id = xia_summit.14 }
		}
		country_event = { id = xia_summit.16 }
		custom_tooltip = wulin_allow_duel_tt
	}
	option = {						#forbid the duel
		name = "xia_summit.13.b"
		ai_chance = {
			factor = 10
		}
		event_target:xia_duel_instigator = {
			country_event = { id = xia_summit.15 }
		}
		event_target:xia_duel_target = {
			country_event = { id = xia_summit.15 }
		}
		add_country_modifier = {
			name = wulin_forbade_duel
			duration = 1800
		}
	}
}

#Duel participants notified that duel has been allowed
country_event = {
	id = xia_summit.14
	title = xia_summit.14.t
	desc = xia_summit.14.d
	picture = IKKO_IKKI_INCIDENT_eventPicture
	
	is_triggered_only = yes
	
	option = {
		name = "xia_summit.14.a"
	}
}

#Duel participants notified that duel has been forbidden
country_event = {
	id = xia_summit.15
	title = xia_summit.15.t
	desc = xia_summit.15.d
	picture = IKKO_IKKI_INCIDENT_eventPicture
	
	is_triggered_only = yes
	
	option = {
		name = "xia_summit.15.a"
	}
} 

#Hidden Event to determine winner of duel
country_event = {
	id = xia_summit.16
	title = xia_summit.16.t
	desc = xia_summit.16.d
	picture = BUDDHISM_GOOD_eventPicture
	
	is_triggered_only = yes
	hidden = yes
	
	#Duel Instigator Wins
	option = {
		name = "xia_summit.16.a"
		ai_chance = {
			factor = 50
			modifier = {
				factor = 2
				event_target:xia_duel_instigator = {
					mil = 3
					NOT = { mil = 4 }
				}
			}
			modifier = {
				factor = 3
				event_target:xia_duel_instigator = {
					mil = 4
					NOT = { mil = 5 }
				}
			}
			modifier = {
				factor = 4
				event_target:xia_duel_instigator = {
					mil = 5
					NOT = { mil = 6 }
				}
			}
			modifier = {
				factor = 5
				event_target:xia_duel_instigator = {
					mil = 6
				}
			}
			modifier = {
				factor = 2
				event_target:xia_duel_instigator = {
					ruler_has_personality = bold_fighter_personality
				}
			}
		}
		event_target:xia_duel_instigator = {
			set_country_flag = xia_duel_won
		}
		event_target:xia_duel_target = {
			set_country_flag = xia_duel_lost
		}
		country_event = { id = xia_summit.17 days = 7 }
	}
	
	#Duel Target Wins
	option = { 
		name = "xia_summit.16.b"
		ai_chance = {
			factor = 50
			modifier = {
				factor = 2
				event_target:xia_duel_target = {
					mil = 3
					NOT = { mil = 4 }
				}
			}
			modifier = {
				factor = 3
				event_target:xia_duel_target = {
					mil = 4
					NOT = { mil = 5 }
				}
			}
			modifier = {
				factor = 4
				event_target:xia_duel_target = {
					mil = 5
					NOT = { mil = 6 }
				}
			}
			modifier = {
				factor = 5
				event_target:xia_duel_target = {
					mil = 6
				}
			}
			modifier = {
				factor = 2
				event_target:xia_duel_target = {
					ruler_has_personality = bold_fighter_personality
				}
			}
		}
		event_target:xia_duel_target = {
			set_country_flag = xia_duel_won
		}
		event_target:xia_duel_instigator = {
			set_country_flag = xia_duel_lost
		}
		country_event = { id = xia_summit.17 days = 7 }
	}
}

#The Duel 
country_event = {
	id = xia_summit.17
	title = xia_summit.17.t
	desc = xia_summit.17.d
	picture = BATTLE_eventPicture
	
	is_triggered_only = yes
	
	option = {						#Duel Instigator Won
		name = "xia_summit.17.a"
		trigger = {
			event_target:xia_duel_instigator = {
				has_country_flag = xia_duel_won
			}
		}
		add_country_modifier = {
			name = xia_inspiring_duel
			duration = 1080
		}
		every_subject_country = {
			limit = {
				has_country_modifier = xia_sent_delegation
				NOT = {
					has_country_flag = xia_duel_won
					has_country_flag = xia_duel_lost
				}
			}
			add_country_modifier = {
				name = xia_inspiring_duel
				duration = 1080
			}
		}
		event_target:xia_duel_instigator = {
			country_event = { id = xia_summit.18 }
		}
		event_target:xia_duel_target = {
			country_event = { id = xia_summit.19 }
		}
	}
	
	option = {						#Duel Target Won
		name = "xia_summit.17.b"
		trigger = {
			event_target:xia_duel_target = {
				has_country_flag = xia_duel_won
			}
		}
		add_country_modifier = {
			name = xia_inspiring_duel
			duration = 1080
		}
		every_subject_country = {
			limit = {
				NOT = {
					has_country_flag = xia_duel_won
					has_country_flag = xia_duel_lost
				}
				has_country_modifier = xia_sent_delegation
			}
			add_country_modifier = {
				name = xia_inspiring_duel
				duration = 1080
			}
		}
		event_target:xia_duel_instigator = {
			country_event = { id = xia_summit.19 }
		}
		event_target:xia_duel_target = {
			country_event = { id = xia_summit.18 }
		}
	}
}

#We won
country_event = {
	id = xia_summit.18
	title = xia_summit.18.t
	desc = xia_summit.18.d
	picture = IKKO_IKKI_INCIDENT_eventPicture
	
	is_triggered_only = yes
	
	option = {
		name = "xia_summit.18.a"
		add_prestige = 20
		add_country_modifier = { 
			name = xia_won_duel
			duration = 1080
		}
		clr_country_flag = xia_duel_won
	}
}

#We lost
country_event = {
	id = xia_summit.19
	title = xia_summit.19.t
	desc = xia_summit.19.d
	picture = IKKO_IKKI_INCIDENT_eventPicture
	
	is_triggered_only = yes
	
	option = {
		name = "xia_summit.19.a"
		add_prestige = -25
		clr_country_flag = xia_duel_lost
	}
}
###########Duel event chain end###########

#Gain advisor (skill 2)
country_event = {
	id = xia_summit.30
	title = xia_summit.30.t
	desc = xia_sumimt.30.d
	picture = ADVISOR_eventPicture
	
	trigger = {
		OR = {
			tag = Y99
			has_reform = wulin
		}
		has_country_flag = xia_summit
		NOT = {
			OR = {
				ruler_has_personality = well_connected_personality
				ruler_has_personality = well_advised_personality
			}
		}
	}
	
	mean_time_to_happen = {
		months = 72
	}
	
	option = {
		name = "xia_summit.30.a"
		random_list = {
			10 = {
				define_advisor = {
				type = treasurer
				discount = yes
				skill = 2
				}
			}
			10 = {
				define_advisor = {
					type = philosopher
					discount = yes
					skill = 2
				}
			}
			10 = {	
				define_advisor = {
					type = statesman
					discount = yes
					skill = 2
				}
			}
			10 = {
				define_advisor = {
					type = spymaster
					discount = yes
					skill = 2
				}
			}
			10 = {
				define_advisor = {
					type = trader
					discount = yes
					skill = 2
				}
			}
			10 = {
				define_advisor = {
					type = commandant
					discount = yes
					skill = 2
				}
			}
			10 = {
				define_advisor = {
					type = artist
					discount = yes
					skill = 2
				}
			}
			10 = {
				define_advisor = {
					type = army_organiser
					discount = yes
					skill = 2
				}
			}
			10 = {
				define_advisor = {
					type = quartermaster
					discount = yes
					skill = 2
				}
			}
			10 = {
				define_advisor = {
					type = diplomat
					discount = yes
					skill = 2
				}
			}	
		}
	}
	option = {
		name = "xia_summit.30.b"
		add_prestige = 5
	}
}

#Gain advisor (Skill 3)
country_event = {
	id = xia_summit.31
	title = xia_summit.31.t
	desc = xia_summit.31.d
	picture = ADVISOR_eventPicture
	
	trigger = {
		OR = {
			tag = Y99
			has_reform = wulin
		}
		has_country_flag = xia_summit
		OR = {
			ruler_has_personality = well_connected_personality
			ruler_has_personality = well_advised_personality
		}
	}
	
	mean_time_to_happen = {
		months = 128
	}
	
	option = {
		name = "xia_summit.31.a"
		random_list = {
			10 = {
				define_advisor = {
					type = treasurer
					discount = yes
					skill = 3
				}
			}
			10 = {
				define_advisor = {
					type = philosopher
					discount = yes
					skill = 3
				}
			}
			10 = {	
				define_advisor = {
					type = statesman
					discount = yes
					skill = 3
				}
			}
			10 = {
				define_advisor = {
					type = spymaster
					discount = yes
					skill = 3
				}
			}
			10 = {
				define_advisor = {
					type = trader
					discount = yes
					skill = 3
				}
			}
			10 = {
				define_advisor = {
					type = commandant
					discount = yes
					skill = 3
				}
			}
			10 = {
				define_advisor = {
					type = artist
					discount = yes
					skill = 3
				}
			}
			10 = {
				define_advisor = {
					type = army_organiser
					discount = yes
					skill = 3
				}
			}
			10 = {
				define_advisor = {
					type = quartermaster
					discount = yes
					skill = 3
				}
			}
			10 = {
				define_advisor = {
					type = diplomat
					discount = yes
					skill = 3
				}
			}	
		}
	}
	option = {	
		name = "xia_summit.31.b"
		add_prestige = 5
	}
}

#Wandering Warrior
country_event = {
	id = xia_summit.32
	title = xia_summit.32.t
	picture = BUDDHISM_LAMA_eventPicture
	
	desc = {
		trigger = {
			OR = {
				ruler_has_personality = just_personality
				ruler_has_personality = righteous_personality
				ruler_has_personality = inspiring_leader_personality
				ruler_has_personality = pious_personality
			}
		}
		desc = xia_summit.32.da
	}
	
	desc = {
		trigger = {
			NOT = {
				ruler_has_personality = just_personality
				ruler_has_personality = righteous_personality
				ruler_has_personality = inspiring_leader_personality
				ruler_has_personality = pious_personality
			}
			OR = {
				has_reform = one_xia
				has_reform = wulin
			}
		}
		desc = xia_summit.32.db
	}
	
	desc = {
		trigger = {
			NOT = {
				ruler_has_personality = just_personality
				ruler_has_personality = righteous_personality
				ruler_has_personality = inspiring_leader_personality
				ruler_has_personality = pious_personality
			}
			OR = {
				has_reform = xiaken
			}
		}
		desc = xia_summit.32.dc
	}
	
	trigger = {
		has_country_flag = xia_summit
	}
	
	mean_time_to_happen = {
		months = 96
		
		modifier = {
			factor = 0.5
			OR = {
				ruler_has_personality = just_personality
				ruler_has_personality = righteous_personality
				ruler_has_personality = inspiring_leader_personality
				ruler_has_personality = pious_personality
			}
		}
	}
	
	option = {								#Make him a general
		name = "xia_summit.32.a"
		create_general = { tradition = 60 }
	}
	
	option = { 								#Make him an advisor
		name = "xia_summit.32.b"
		random_list = {
			25 = {
				define_advisor = {
					type = commandant
					discount = yes
					skill = 3
				}
			}
			25 = {
				define_advisor = {
					type = recruitmaster
					discount = yes
					skill = 3
				}
			}
			25 = {	
				define_advisor = {
					type = army_organiser
					discount = yes
					skill = 3
				}
			}
			25 = {	
				define_advisor = {
					type = grand_captain
					discount = yes
					skill = 3
				}
			}
		}
	}
	
	option = {								#Turn him away
		name = "xia_summit.32.c"
		add_prestige = 10
	}
}

#Productive Debate
country_event = {
	id = xia_summit.33
	title = xia_summit.33.t
	picture = PARLIAMENT_eventPicture
	
	desc = {
		trigger = {
			has_reform = xiaken
		}
		desc = xia_summit.33.da
	}
	
	desc = {
		trigger = {
			OR = {
				has_reform = wulin
				has_reform = one_xia
			}
		}
		desc = xia_summit.33.db
	}
	
	trigger = {
		has_country_flag = xia_summit
	}
	
	mean_time_to_happen = { 
		months = 72
	}
	
	option = {								#Meditate on the conclusions reached
		name = "xia_summit.33.a"
		add_country_modifier = {
			name = xia_debate_wisdom
			duration = 1800
		}
	}
	
	option = {								#Create task force
		name = "xia_summit.33.b"
		random_list = {
			30 = {
				add_adm_power = 50
			}
			30 = {
				add_dip_power = 50
			}
			30 = {	
				add_mil_power = 50
			}
			10 = {	
				add_adm_power = 25
				add_dip_power = 25
				add_mil_power = 25
			}
		}
	}
}

#Debate ends in brawl
country_event = {
	id = xia_summit.34
	title = xia_summit.34.t
	picture = BABBLING_BAFFOON_eventPicture
	
	desc = {
		trigger = {
			has_reform = xiaken
		}
		desc = xia_summit.34.da
	}
	
	desc = {
		trigger = {
			has_reform = wulin
		}
		desc = xia_summit.34.db
	}
	
	desc = {
		trigger = {
			has_reform = one_xia
		}
		desc = xia_summit.34.dc
	}
	
	trigger = {
		has_country_flag = xia_summit
	}
	
	mean_time_to_happen = { 
		months = 72
	}
	
	option = {								#Oh well
		name = "xia_summit.34.a"
		trigger = {
			OR = {
				has_reform = wulin
				has_reform = one_xia
			}
		}
		ai_chance = { factor = 1 }
		if = {
			limit = {
				has_reform = wulin
			}
			add_country_modifier = {
				name = wulin_unruly_subjects
				duration = 1080
			}
		}
		if = {
			limit = {
				has_reform = one_xia
			}
			add_stability = -1
		}
	}
	
	option = {								#Xiaken version of oh well
		name = "xia_summit.34.b"
		trigger = {
			has_reform = xiaken
		}
	}
		
	option = {								#Calm the assembly, appeal to harmony
		name = "xia_summit.34.c"
		highlight = yes
		trigger = {
			OR = {
				has_reform = wulin
				has_reform = one_xia
			}
			OR = {
				ruler_has_personality = charismatic_negotiator_personality
				ruler_has_personality = silver_tongue_personality
				ruler_has_personality = pious_personality
				ruler_has_personality = calm_personality
			}
		}
		ai_chance = { factor = 99 }
		add_stability_or_adm_power = yes
		add_devotion = 10
	}
}

#Adventurers Demand Concessions
country_event = {
	id = xia_summit.35
	title = xia_summit.35.t
	picture = MERCHANTS_TALKING_eventPicture
	
	desc = {
		trigger = {
			NOT = {
				has_reform = xia_parliament_reform
			}
		}
		desc = xia_summit.35.da
	}
	
	desc = {
		trigger = {
			has_reform = xia_parliament_reform
		}
		desc = xia_summit.35.db
	}
	
	trigger = {
		has_country_modifier = xia_patronizing_wandering_warriors
		has_country_flag = xia_summit
	}
	
	mean_time_to_happen = { 
		months = 120
	}
	
	option = {								#They can suck one
		name = xia_summit.35.a
		add_prestige = 10
		add_estate_loyalty = {
			estate = estate_adventurers
			loyalty = -10
		}
	}
	
	option = {								#Make them pay
		name = xia_summit.35.b
		add_years_of_income = 1
		add_corruption = 1
		add_estate_influence_modifier = {
			estate = estate_adventurers
			desc = EST_VAL_ADVENTURERS_ADVANCE
			influence = 10
			duration = 3650
		}
	}
	
	option = {								#Sure
		name = xia_summit.35.c
		add_estate_loyalty = {
			estate = estate_adventurers
			loyalty = 10
		}
		add_estate_influence_modifier = {
			estate = estate_adventurers
			desc = EST_VAL_ADVENTURERS_ADVANCE
			influence = 10
			duration = 3650
		}
	}
}

#Mages Demand Concessions
country_event = {
	id = xia_summit.36
	title = xia_summit.36.t
	picture = MERCHANTS_TALKING_eventPicture
	
	desc = {
		trigger = {
			NOT = {
				has_reform = xia_parliament_reform
			}
		}
		desc = xia_summit.36.da
	}
	
	desc = {
		trigger = {
			has_reform = xia_parliament_reform
		}
		desc = xia_summit.36.db
	}
	
	trigger = {
		has_country_flag = xia_summit
		has_country_modifier = xia_patronizing_sages
	}
	
	mean_time_to_happen = { 
		months = 120
	}
	
	option = {								#They can suck one
		name = xia_summit.36.a
		add_prestige = 10
		add_estate_loyalty = {
			estate = estate_mages
			loyalty = -10
		}
	}
	
	option = {								#Make them pay
		name = xia_summit.36.b
		add_years_of_income = 1
		add_corruption = 1
		add_estate_influence_modifier = {
			estate = estate_mages
			desc = EST_VAL_MAGES_ADVANCE
			influence = 10
			duration = 3650
		}
	}
	
	option = {								#Sure
		name = xia_summit.36.c
		add_estate_loyalty = {
			estate = estate_mages
			loyalty = 10
		}
		add_estate_influence_modifier = {
			estate = estate_mages
			desc = EST_VAL_MAGES_ADVANCE
			influence = 10
			duration = 3650
		}
	}
}

#Summit Heir Training - Xiaken/Wulin version
country_event = {
	id = xia_summit.37
	title = xia_summit.37.t
	desc = xia_summit.37.da
	picture = MIRACLE_MONK_eventPicture
	
	trigger = {
		has_country_flag = xia_summit
		OR = {
			has_reform = xiaken
			has_reform = wulin
		}
		NOT = {
			has_heir_flag = xia_trained_chosen_disciple
		}
	}
	
	mean_time_to_happen = { 
		months = 3
	}
	
	option = {							#Adm training
		name = xia_summit.37.a
		trigger = {
			NOT = {
				has_country_flag = xia_heir_natural_leader
			}
		}
		add_adm_power = -25
		change_heir_adm = 1
		set_heir_flag = xia_trained_chosen_disciple
	}
	
	option = {							#Dip training
		name = xia_summit.37.b
		trigger = {
			NOT = {
				has_country_flag = xia_heir_skilled_mediator
			}
		}
		add_dip_power = -25
		change_heir_dip = 1
		set_heir_flag = xia_trained_chosen_disciple
	}
	
	option = {							#Mil training
		name = xia_summit.37.c
		trigger = {
			NOT = {
				has_country_flag = xia_heir_talented_fighter
			}
		}
		add_mil_power = -25
		change_heir_mil = 1
		set_heir_flag = xia_trained_chosen_disciple
	}
	
	option = {							#Hire Wandering Warrior to spar
		name = xia_summit.37.d
		trigger = {
			has_country_modifier = xia_patronizing_wandering_warriors
		}
		add_years_of_income = -0.5
		add_estate_loyalty = {
			estate = estate_adventurers
			loyalty = 5
		}
		add_estate_influence_modifier = {
			estate = estate_adventurers
			desc = EST_VAL_ADVENTURERS_ADVANCE
			influence = 5
			duration = 3650
		}
		change_heir_mil = 1
		set_heir_flag = xia_trained_chosen_disciple
	}
	
	option = {							#Hire Sage
		name = xia_summit.37.e
		trigger = {
			has_country_modifier = xia_patronizing_sages
			NOT = {
				has_ruler_modifier = heir_mage_personality_mod
			}
		}
		add_years_of_income = -0.5
		add_estate_loyalty = {
			estate = estate_mages
			loyalty = 5
		}
		add_estate_influence_modifier = {
			estate = estate_mages
			desc = EST_VAL_MAGES_ADVANCE
			influence = 5
			duration = 3650
		}
		custom_tooltip = xia_heir_magical_training_tooltip
		set_heir_mage_effect = yes
		set_heir_flag = xia_trained_chosen_disciple
	}
}

#Conclave Heir Training - One Xia version
country_event = {
	id = xia_summit.38
	title = xia_summit.38.t
	desc = xia_summit.38.da
	picture = MIRACLE_MONK_eventPicture
	
	trigger = {
		has_country_flag = xia_summit
		has_reform = xia_parliament_reform
		NOT = {
			has_heir_flag = xia_trained_ascendant_master
		}
	}
	
	mean_time_to_happen = { 
		months = 3
	}
	
	option = {							#Adm training
		name = xia_summit.38.a
		add_adm_power = -25
		change_heir_adm = 1
		random_list = {
			20 = {
				add_heir_personality = industrious_personality
			}
			20 = {
				add_heir_personality = midas_touched_personality
			}
			20 = {
				add_heir_personality = architectural_visionary_personality
			}
			20 = {
				add_heir_personality = free_thinker_personality
			}
			20 = {
				add_heir_personality = scholar_personality
			}
		}
		set_heir_flag = xia_trained_ascendant_master
	}
	
	option = {							#Dip training
		name = xia_summit.38.b
		add_dip_power = -25
		change_heir_dip = 1
		random_list = {
			20 = {
				add_heir_personality = silver_tongue_personality
			}
			20 = {
				add_heir_personality = charismatic_negotiator_personality
			}
			20 = {
				add_heir_personality = intricate_web_weaver_personality
			}
			20 = {
				add_heir_personality = just_personality
			}
			20 = {
				add_heir_personality = kind_hearted_personality
			}
		}
		set_heir_flag = xia_trained_ascendant_master
	}
	
	option = {							#Mil training
		name = xia_summit.38.c
		add_mil_power = -25
		change_heir_mil = 1
		random_list = {
			20 = {
				add_heir_personality = bold_fighter_personality
			}
			20 = {
				add_heir_personality = tactical_genius_personality
			}
			20 = {
				add_heir_personality = inspiring_leader_personality
			}
			20 = {
				add_heir_personality = martial_educator_personality
			}
			20 = {
				add_heir_personality = strict_personality
			}
		}
		set_heir_flag = xia_trained_ascendant_master
	}
	
	option = {							#Hire Master Warrior
		name = xia_summit.38.d
		trigger = {
			has_country_modifier = xia_patronizing_wandering_warriors
		}
		add_years_of_income = -0.5
		add_estate_loyalty = {
			estate = estate_adventurers
			loyalty = 5
		}
		add_estate_influence_modifier = {
			estate = estate_adventurers
			desc = EST_VAL_ADVENTURERS_ADVANCE
			influence = 5
			duration = 3650
		}
		change_heir_mil = 2
		set_heir_flag = xia_trained_ascendant_master
	}
	
	option = {							#Hire Master Sage
		name = xia_summit.38.e
		trigger = {
			has_country_modifier = xia_patronizing_sages
			NOT = {
				has_ruler_modifier = heir_mage_personality_mod
			}
		}
		add_years_of_income = -0.5
		add_estate_loyalty = {
			estate = estate_mages
			loyalty = 5
		}
		add_estate_influence_modifier = {
			estate = estate_mages
			desc = EST_VAL_MAGES_ADVANCE
			influence = 5
			duration = 3650
		}
		custom_tooltip = xia_heir_magical_training_tooltip
		set_heir_mage_effect = yes
		set_heir_flag = xia_trained_ascendant_master
	}
}