# Describes how religion is spread to new provinces from
# Centers of Reformation and the "Propagate Religion" Trading Policy

#Anbennar - changes muslim to ravelian

propagate_religion_policy = {
	
	trading_policy = yes # Religion is taken from country using the trading policy.	max_distance is not used.

	map_icon = GFX_religious_conversion_center_trading_policy

	base_conversion_speed = 2.0
	
	target_province_weights = {
	
		#Will only target provinces within same node
		#From Scope is country using the trading policy
		
		factor = 5
		
		modifier = {
			factor = 0
			has_missionary = yes
		}
		modifier = {
			factor = 0
			is_empty = yes
		}
		modifier = {
			factor = 0
			has_province_modifier = religious_center
		}
		#modifier = {
		#	factor = 0
		#	province_id = 118 # Rome, seat of Papacy
		#}
		modifier = {
			factor = 0
			has_province_modifier = religious_zeal_at_conv
		}
		modifier = {
			factor = 0
			OR = {
				religion = ravelian
				#religion_group = christian
				#religion_group = jewish_group
			}
		}
		modifier = {
			factor = 0.25
			has_port = no
		}
		modifier = {
			factor = 1.15
			has_province_modifier = trading_settlement
		}
		modifier = {
			factor = 1.5
			has_province_modifier = islamic_missionaries
		}
		modifier = {
			factor = 1.5
			has_province_modifier = muslim_sailor_community
		}
		modifier = {
			factor = 2
			OR = {
				any_neighbor_province = {
					religion = FROM
				}
				has_port = yes
			}
		}
		modifier = {
			factor = 1.5
			owner = {
				religion = FROM
			}
		}
		modifier = {
			factor = 1.25
			owner = {
				religion_group = FROM
			}
		}
	}
}


# Centers of Reformation
# From Scope is center of Reformation Province
# Will only target provinces on same continent

hussite_center_of_reformation = {
	
	religion = hussite

	map_icon = GFX_religious_conversion_center_protestant

	max_distance = 150.0 # From Center of Reformation center province (default is NDefines::NReligion::MAX_RELIGIOUS_CENTER_SPREAD_DISTANCE).
	base_conversion_speed = 2

	target_province_weights = {
		factor = 2
		
		modifier = {
			factor = 0
			is_empty = yes
		}
		modifier = {
			factor = 0
			has_missionary = yes
		}
		modifier = {
			factor = 0
			province_id = 118 # Rome, seat of Papacy
		}
		modifier = {
			factor = 0
			has_province_modifier = religious_center
		}
		modifier = {
			factor = 0
			has_province_modifier = religious_zeal_at_conv
		}
		modifier = {
			factor = 0
			religion = reformed
		}
		modifier = {
			factor = 0
			religion = protestant
		}
		modifier = {
			factor = 0
			religion = anglican
		}
		modifier = {
			factor = 0
			NOT = { religion_group = christian }
		}
		modifier = {
			factor = 0
			NOT = { continent = FROM }
		}
		modifier = {
			factor = 0.6
			owner = {
				num_of_cardinals = 1
			}
		}
		modifier = {
			factor = 0.6
			owner = {
				num_of_cardinals = 2
			}
		}
		modifier = {
			factor = 0.6
			owner = {
				num_of_cardinals = 3
			}
		}
		modifier = {
			factor = 0.6
			owner = {
				num_of_cardinals = 4
			}
		}
		modifier = {
			factor = 0.6
			owner = {
				num_of_cardinals = 5
			}
		}
		modifier = {
			factor = 5
			owner = {
				religion = hussite
			}
		}
		modifier = {
			factor = 2
			culture_group = FROM
		}
		modifier = {
			factor = 0.5
			NOT = {
				culture_group = FROM
			}
		}
		modifier = {
			factor = 2
			culture = FROM
		}
		modifier = {
			factor = 0.01
			religion = coptic
		}		
		modifier = {
			factor = 0.01
			religion = orthodox
		}
		modifier = {
			factor = 0.5
			has_state_edict = edict_religion_enforced
		}
		# HRE is more resistant to reformation when the Pope is an Imperial Prince
		modifier = {
			factor = 0.75
			is_part_of_hre = yes
			PAP = {
				is_part_of_hre = yes
			}
		}
	}
}

anglican_center_of_reformation = {
	
	religion = anglican

	map_icon = GFX_religious_conversion_center_protestant

	max_distance = 150.0 # From Center of Reformation center province (default is NDefines::NReligion::MAX_RELIGIOUS_CENTER_SPREAD_DISTANCE).
	base_conversion_speed = 2

	target_province_weights = {
		factor = 2
		
		modifier = {
			factor = 0
			is_empty = yes
		}
		modifier = {
			factor = 0
			has_missionary = yes
		}
		modifier = {
			factor = 0
			province_id = 118 # Rome, seat of Papacy
		}
		modifier = {
			factor = 0
			has_province_modifier = religious_center
		}
		modifier = {
			factor = 0
			has_province_modifier = religious_zeal_at_conv
		}
		modifier = {
			factor = 0
			religion = reformed
		}
		modifier = {
			factor = 0
			religion = protestant
		}
		modifier = {
			factor = 0
			NOT = { religion_group = christian }
		}
		modifier = {
			factor = 0
			NOT = { continent = FROM }
		}
		modifier = {
			factor = 0.6
			owner = {
				num_of_cardinals = 1
			}
		}
		modifier = {
			factor = 0.6
			owner = {
				num_of_cardinals = 2
			}
		}
		modifier = {
			factor = 0.6
			owner = {
				num_of_cardinals = 3
			}
		}
		modifier = {
			factor = 0.6
			owner = {
				num_of_cardinals = 4
			}
		}
		modifier = {
			factor = 0.6
			owner = {
				num_of_cardinals = 5
			}
		}
		modifier = {
			factor = 2
			owner = {
				religion = anglican
			}
		}
		modifier = {
			factor = 0
			religion = hussite
		}
		modifier = {
			factor = 2
			culture_group = FROM
		}
		modifier = {
			factor = 0.5
			NOT = {
				culture_group = FROM
			}
		}
		modifier = {
			factor = 2
			culture = FROM
		}
		modifier = {
			factor = 0.01
			religion = coptic
		}		
		modifier = {
			factor = 0.01
			religion = orthodox
		}
		modifier = {
			factor = 0.5
			has_state_edict = edict_religion_enforced
		}
		# HRE is more resistant to reformation when the Pope is an Imperial Prince
		modifier = {
			factor = 0.75
			is_part_of_hre = yes
			PAP = {
				is_part_of_hre = yes
			}
		}
	}
}

protestant_center_of_reformation = {
	
	religion = protestant

	map_icon = GFX_religious_conversion_center_protestant

	max_distance = 150.0 # From Center of Reformation center province (default is NDefines::NReligion::MAX_RELIGIOUS_CENTER_SPREAD_DISTANCE).
	base_conversion_speed = 2

	target_province_weights = {
		factor = 2
		
		modifier = {
			factor = 0
			is_empty = yes
		}
		modifier = {
			factor = 0
			has_missionary = yes
		}
		modifier = {
			factor = 0
			province_id = 118 # Rome, seat of Papacy
		}
		modifier = {
			factor = 0
			has_province_modifier = religious_center
		}
		modifier = {
			factor = 0
			has_province_modifier = religious_zeal_at_conv
		}
		modifier = {
			factor = 0
			religion = reformed
		}
		modifier = {
			factor = 0
			religion = anglican
		}
		modifier = {
			factor = 0
			religion = hussite
		}
		modifier = {
			factor = 0
			NOT = { religion_group = christian }
		}
		modifier = {
			factor = 0
			NOT = { continent = FROM }
		}
		modifier = {
			factor = 0.7
			owner = {
				num_of_cardinals = 1
			}
		}
		modifier = {
			factor = 0.7
			owner = {
				num_of_cardinals = 2
			}
		}
		modifier = {
			factor = 0.7
			owner = {
				num_of_cardinals = 3
			}
		}
		modifier = {
			factor = 0.7
			owner = {
				num_of_cardinals = 4
			}
		}
		modifier = {
			factor = 0.7
			owner = {
				num_of_cardinals = 5
			}
		}
		modifier = {
			factor = 1.5
			owner = {
				religion = protestant
			}
		}
		modifier = {
			factor = 1.5
			culture_group = FROM
		}
		modifier = {
			factor = 2
			culture_group = FROM
			development = 10
			NOT = { num_of_centers_of_reformation = { religion = protestant count = 2 } }
		}
		modifier = {
			factor = 0.01
			religion = coptic
		}		
		modifier = {
			factor = 0.01
			religion = orthodox
		}		
		modifier = {
			factor = 0.5
			has_state_edict = edict_religion_enforced
		}
		# HRE is more resistant to reformation when the Pope is an Imperial Prince
		modifier = {
			factor = 0.75
			is_part_of_hre = yes
			PAP = {
				is_part_of_hre = yes
			}
		}
	}
}

reformed_center_of_reformation = {

	religion = reformed
	
	map_icon = GFX_religious_conversion_center_protestant

	max_distance = 150.0 # From Center of Reformation center province (default is NDefines::NReligion::MAX_RELIGIOUS_CENTER_SPREAD_DISTANCE).
	base_conversion_speed = 2

	target_province_weights = {
		factor = 2
		
		modifier = {
			factor = 0
			has_missionary = yes
		}
		modifier = {
			factor = 0
			is_empty = yes
		}
		modifier = {
			factor = 0
			province_id = 118 # Rome, seat of Papacy
		}
		modifier = {
			factor = 0
			has_province_modifier = religious_center
		}
		modifier = {
			factor = 0
			has_province_modifier = religious_zeal_at_conv
		}
		modifier = {
			factor = 0
			religion = protestant
		}
		modifier = {
			factor = 0
			religion = anglican
		}
		modifier = {
			factor = 0
			religion = hussite
		}
		modifier = {
			factor = 0
			NOT = { religion_group = christian }
		}
		modifier = {
			factor = 0
			NOT = { continent = FROM }
		}
		modifier = {
			factor = 0.7
			owner = {
				num_of_cardinals = 1
			}
		}
		modifier = {
			factor = 0.7
			owner = {
				num_of_cardinals = 2
			}
		}
		modifier = {
			factor = 0.7
			owner = {
				num_of_cardinals = 3
			}
		}
		modifier = {
			factor = 0.7
			owner = {
				num_of_cardinals = 4
			}
		}
		modifier = {
			factor = 0.7
			owner = {
				num_of_cardinals = 5
			}
		}
		modifier = {
			factor = 1.5
			owner = {
				religion = reformed
			}
		}
		modifier = {
			factor = 1.5
			culture_group = FROM
		}
		modifier = {
			factor = 2
			culture_group = FROM
			development = 10
			NOT = { num_of_centers_of_reformation = { religion = reformed count = 2 } }
		}
		modifier = {
			factor = 0.01
			religion = coptic
		}		
		modifier = {
			factor = 0.01
			religion = orthodox
		}		
		modifier = {
			factor = 0.5
			has_state_edict = edict_religion_enforced
		}
		# HRE is more resistant to reformation when the Pope is an Imperial Prince
		modifier = {
			factor = 0.75
			is_part_of_hre = yes
			PAP = {
				is_part_of_hre = yes
			}
		}
	}
}

corinite_center_of_reformation = {
	
	religion = corinite

	map_icon = GFX_religious_conversion_center_reformed

	max_distance = 200.0 # From Center of Reformation center province (default is NDefines::NReligion::MAX_RELIGIOUS_CENTER_SPREAD_DISTANCE).
	base_conversion_speed = 7.5	#usually 5, above is usually 150

	target_province_weights = {
		factor = 2
		
		modifier = {
			factor = 0
			is_empty = yes
		}
		modifier = {
			factor = 0
			has_missionary = yes
		}
		modifier = {
			factor = 0
			has_province_modifier = religious_center
		}
		modifier = {
			factor = 0
			has_province_modifier = religious_zeal_at_conv
		}
		modifier = {
			factor = 0
			religion = ravelian
		}
		modifier = {
			factor = 0
			NOT = { religion_group = cannorian }
		}
		modifier = {
			factor = 0
			NOT = { continent = FROM }
		}

		modifier = {
			factor = 2
			owner = {
				religion = corinite
			}
		}
		modifier = {
			factor = 1.5
			owner = {
				has_personal_deity = corin
			}
		}
		modifier = {
			factor = 1.5
			culture_group = FROM
		}
		modifier = {
			factor = 2
			culture_group = FROM
			development = 10
			NOT = { num_of_centers_of_reformation = { religion = corinite count = 3 } }	#usually 2
		}
		modifier = {
			factor = 0.5
			has_state_edict = edict_religion_enforced
		}
		modifier = {
			factor = 0.75
			culture = adenner
		}
		modifier = {
			factor = 0.75
			owner = {
				tag = B58
			}
		}
		modifier = {
			factor = 0
			current_age = age_of_absolutism
		}
	}
}

ravelian_center_of_reformation = {
	
	religion = ravelian

	map_icon = GFX_religious_conversion_center_catholic

	max_distance = 150.0 # From Center of Reformation center province (default is NDefines::NReligion::MAX_RELIGIOUS_CENTER_SPREAD_DISTANCE).
	base_conversion_speed = 2

	target_province_weights = {
		factor = 2
		
		modifier = {
			factor = 0
			is_empty = yes
		}
		modifier = {
			factor = 0
			has_missionary = yes
		}
		modifier = {
			factor = 0
			has_province_modifier = religious_center
		}
		modifier = {
			factor = 0
			has_province_modifier = religious_zeal_at_conv
		}
		modifier = {
			factor = 0
			religion = ravelian
		}
		modifier = {
			factor = 0
			NOT = { religion_group = cannorian }
		}
		modifier = {
			factor = 0
			NOT = { continent = FROM }
		}

		modifier = {
			factor = 1.5
			owner = {
				religion = ravelian
			}
		}
		modifier = {
			factor = 1.5
			culture_group = FROM
		}
		modifier = {
			factor = 2
			culture_group = FROM
			development = 10
			NOT = { num_of_centers_of_reformation = { religion = ravelian count = 2 } }
		}
		modifier = {
			factor = 0.5
			has_state_edict = edict_religion_enforced
		}
		# HRE is more resistant to reformation when the Pope is an Imperial Prince
		modifier = {
			factor = 5
			is_part_of_hre = yes
			Z97 = {
				is_part_of_hre = yes
			}
		}
	
	}
}